<!DOCTYPE html>
<html>
<head>
	<meta charset="utf-8">
	<title>MOTD</title>
</head>
<body style="background: #000;">
	<h1 style="color: #FF592A; text-align: center;">:: Welcome to Four Dots CS server! ::</h1>
</body>
</html>
